<svg xmlns="http://www.w3.org/2000/svg" viewBox="0 0 512 512">
    <g style="touch-action: none;" transform="translate(0,0)">
        <path d="M256 41c-28.25 0-58.36 18.25-81.166 44.857-3.138 3.66-6.123 7.477-8.947 11.403L208 69.184l23.127 15.418c.506-6.936 2.568-13.312 6.07-18.565C241.265 59.937 247.934 55 256 55s14.735 4.936 18.803 11.037c3.502 5.253 5.564 11.63 6.07 18.565L304 69.184l42.113 28.076c-2.824-3.926-5.81-7.742-8.947-11.403C314.36 59.25 284.25 41 256 41zm0 32c-.77 0-2.103.436-3.826 3.02C250.45 78.608 249 82.995 249 88c0 3.83.85 7.29 2.02 9.865l4.98 3.32 4.98-3.32C262.15 95.29 263 91.83 263 88c0-5.006-1.45-9.393-3.174-11.98C258.103 73.437 256.77 73 256 73zm-48 17.816l-28.623 19.08 5.336 1.067c16.922 2.09 36.528 3.426 56.605 3.867-1.384-1.3-2.626-2.74-3.7-4.268L208 90.817zm96 0l-29.617 19.747c-1.075 1.527-2.317 2.968-3.7 4.267 20.077-.442 39.685-1.777 56.608-3.867l5.333-1.067L304 90.816zM32 112c33.318 33.318 58.914 89.742 71.463 126.506 3.176-25.792 7.433-52.057 12.54-74.658 1.177-5.203 2.363-10.177 3.585-14.922C98.66 132.53 44.818 112 32 112zm448 0c-12.818 0-66.66 20.53-87.588 36.926 1.222 4.745 2.408 9.72 3.584 14.922 5.108 22.6 9.365 48.866 12.54 74.658C421.087 201.742 446.683 145.318 480 112zm-331.47 10.086c-4.642 8.756-10.375 25.398-14.97 45.73-5.475 24.23-10.06 53.44-13.257 81.444-2.72 23.812-4.36 46.505-4.832 64.775 6.863-23.28 15.328-51.522 26.116-79.943 14.948-39.38 33.48-78.513 59.758-101.444l-52.813-10.562zm214.94 0l-52.814 10.562c26.277 22.93 44.81 62.063 59.758 101.444 10.788 28.42 19.253 56.664 26.115 79.943-.474-18.27-2.114-40.963-4.833-64.775-3.197-28.003-7.782-57.213-13.258-81.444-4.595-20.332-10.328-36.974-14.97-45.73zm-128.755 10.62l-6.69 3.345c-6.37 3.187-12.575 8.02-18.574 14.118 6.667.82 12.99 2.112 18.59 3.863 8.714 2.728 16.785 5.412 20.364 14.75l-16.808 6.44c.716 1.868-2.263-1.923-8.932-4.01-6.67-2.085-15.925-3.606-25.332-3.99-.636-.025-1.273-.033-1.91-.048-3.23 4.555-6.38 9.44-9.442 14.596 4.823-1.175 9.422-1.768 14.02-1.768 12 0 24 4 40 12 0 16-16 32-32 32-9.86 0-25.784-6.078-36.563-14.484-4.653 9.97-9.01 20.393-13.023 30.964-2.324 6.122-4.538 12.267-6.662 18.38 9.174 24.796 21.778 46.163 35.352 63.615 13.475 17.326 27.913 30.755 40.576 39.666C240.342 371.05 251.75 375 256 375s15.658-3.95 28.32-12.86c12.663-8.91 27.1-22.34 40.576-39.665 13.574-17.452 26.178-38.82 35.352-63.614-2.124-6.113-4.338-12.258-6.662-18.38-4.013-10.57-8.37-20.995-13.024-30.964C329.784 217.922 313.86 224 304 224c-16 0-32-16-32-32 16-8 28-12 40-12 4.598 0 9.197.593 14.02 1.768-3.043-5.124-6.173-9.98-9.383-14.512-9.19.424-18.187 1.915-24.707 3.955-6.67 2.087-9.648 5.878-8.932 4.01l-16.81-6.44c3.58-9.338 11.653-12.022 20.37-14.75 4.95-1.548 10.476-2.728 16.296-3.55-6.093-6.248-12.4-11.19-18.88-14.43l-6.69-3.345c-7.034.196-14.15.295-21.284.295-7.133 0-14.25-.1-21.285-.295zM200 192a8 8 0 0 0-8 8 8 8 0 0 0 8 8 8 8 0 0 0 8-8 8 8 0 0 0-8-8zm111.648 0a8 8 0 0 0-8 8 8 8 0 0 0 8 8 8 8 0 0 0 8-8 8 8 0 0 0-8-8zM240 256l16 4.098L272 256c0 16-16 16-16 16s-16 0-16-16zm-96.836 28.87c-4.49 14.25-8.274 27.123-11.822 39.16-9.37 62.528-29.578 99.06-52.65 146.353 4.716-.48 9.643-1.316 14.462-2.922 10.293-3.43 19.87-9.632 26.795-23.485l8.05-16.1 8.05 16.1c7.835 15.668 12.134 21.143 14.272 22.773 1.07.815 1.84 1.144 3.942 1.793.25.08.683.214.984.308 12.907-29.755 25.753-81.982 27.535-123.414-3.33-3.765-6.635-7.728-9.887-11.91-10.863-13.966-21.126-30.27-29.732-48.655zm225.672 0c-8.606 18.385-18.87 34.688-29.732 48.655-3.252 4.18-6.557 8.144-9.887 11.91 1.824 42.395 15.232 96.096 28.435 125.454.942-.053 1.702-.12 2.155-.21 1.098-.223.9-.08 1.836-1.022 1.873-1.886 6.306-9.683 14.306-25.683l8.05-16.1 8.05 16.1c6.927 13.853 16.503 20.055 26.796 23.486 5.303 1.77 10.72 2.63 15.857 3.073-17.65-45.806-38.75-79.5-50.51-134.562-4.353-14.547-9.39-32.163-15.357-51.1zM240 288s16 0 16 6.693C256 288 272 288 272 288c16 0 32 16 48 16 0 0-28.9 29.78-48 32-5.653.657-16-5.96-16-5.96s-10.347 6.617-16 5.96c-19.1-2.22-48-32-48-32 16 0 32.012-15.997 48-16zm-40.482 74.475c-.435 4.7-.954 9.44-1.58 14.207l1.55 2.326 25.91 38.865 24.24-24.236 1.048-1.05c-10.23-1.496-21.165-7.142-33.366-15.728-5.783-4.07-11.77-8.882-17.802-14.385zm112.964 0c-6.033 5.503-12.02 10.314-17.802 14.384-12.2 8.585-23.134 14.23-33.364 15.728l25.286 25.285 25.91-38.865 1.55-2.326c-.626-4.767-1.145-9.508-1.58-14.207zm-118.82 40.242c-4.95 25.17-12.022 49.39-19.78 68.283h70.358l-28.166-35.072-22.412-33.21zm124.676 0l-22.412 33.21L267.76 471h70.36c-7.76-18.893-14.83-43.113-19.782-68.283zM256 412.727l-19.88 19.882L256 456.942l19.88-24.334L256 412.726z" fill="#fff" fill-opacity="1"></path>
    </g>
</svg>